00000000 .text
000008b7 .rodata
000008e4 .data
00000900 .bss
00000000 .comment
00000000 .debug_aranges
00000000 .debug_pubnames
00000000 .debug_info
00000000 .debug_abbrev
00000000 .debug_line
00000000 .debug_frame
00000000 .debug_str
00000000 .debug_loc
00000000 .debug_pubtypes
00000000 cat.c
00000000 ulib.c
00000110 stosb
00000000 printf.c
00000414 putc
0000043c printint
000008e4 digits.911
00000000 umalloc.c
00000900 base
00000908 freep
0000077f morecore
00000135 strcpy
000004f0 printf
0000032e memmove
000003bc mknod
00000225 gets
000003f4 getpid
00000000 cat
000007d7 malloc
00000404 sleep
00000384 pipe
00000394 write
000003cc fstat
000003a4 kill
000003e4 chdir
000003ac exec
0000037c wait
0000038c read
000003c4 unlink
0000036c fork
000003fc sbrk
0000040c uptime
000008f8 __bss_start
000001ce memset
00000068 main
00000168 strcmp
000003ec dup
00000920 buf
00000294 stat
000008f8 _edata
00000b20 _end
000003d4 link
00000374 exit
000002e2 atoi
000001a9 strlen
000003b4 open
000001f2 strchr
000003dc mkdir
0000039c close
000006a8 free
