00000000 .text
00000823 .rodata
00000854 .data
00000868 .bss
00000000 .comment
00000000 .debug_aranges
00000000 .debug_pubnames
00000000 .debug_info
00000000 .debug_abbrev
00000000 .debug_line
00000000 .debug_frame
00000000 .debug_str
00000000 .debug_loc
00000000 .debug_pubtypes
00000000 ln.c
00000000 ulib.c
0000007c stosb
00000000 printf.c
00000380 putc
000003a8 printint
00000854 digits.911
00000000 umalloc.c
00000868 base
00000870 freep
000006eb morecore
000000a1 strcpy
0000045c printf
0000029a memmove
00000328 mknod
00000191 gets
00000360 getpid
00000743 malloc
00000370 sleep
000002f0 pipe
00000300 write
00000338 fstat
00000310 kill
00000350 chdir
00000318 exec
000002e8 wait
000002f8 read
00000330 unlink
000002d8 fork
00000368 sbrk
00000378 uptime
00000868 __bss_start
0000013a memset
00000000 main
000000d4 strcmp
00000358 dup
00000200 stat
00000868 _edata
00000874 _end
00000340 link
000002e0 exit
0000024e atoi
00000115 strlen
00000320 open
0000015e strchr
00000348 mkdir
00000308 close
00000614 free
